D:\work\Y3\1\Algorithm\UserManagement\src\main\java\UserService.java
D:\work\Y3\1\Algorithm\UserManagement\src\main\java\LoginFrame.java
D:\work\Y3\1\Algorithm\UserManagement\src\main\java\User.java
D:\work\Y3\1\Algorithm\UserManagement\src\main\java\TestWriteFile.java
D:\work\Y3\1\Algorithm\UserManagement\src\main\java\TestReadFile.java
